{
  "id": "d12bd10f-d189-4caf-998c-9d38261169a5",
  "name": "sys.geo-city",
  "isOverridable": true,
  "isEnum": false,
  "isRegexp": false,
  "automatedExpansion": false,
  "allowFuzzyExtraction": false
}