{
  "description": "",
  "language": "en",
  "shortDescription": "",
  "examples": "",
  "linkToDocs": "",
  "displayName": "VolunterrConversationApp",
  "disableInteractionLogs": false,
  "disableStackdriverLogs": true,
  "googleAssistant": {
    "googleAssistantCompatible": false,
    "project": "",
    "welcomeIntentSignInRequired": false,
    "startIntents": [],
    "systemIntents": [],
    "endIntentIds": [],
    "oAuthLinking": {
      "required": false,
      "providerId": "",
      "authorizationUrl": "",
      "tokenUrl": "",
      "scopes": "",
      "privacyPolicyUrl": "",
      "grantType": "AUTH_CODE_GRANT"
    },
    "voiceType": "VOICE_TYPE_UNSPECIFIED",
    "capabilities": [],
    "env": "",
    "protocolVersion": "PROTOCOL_VERSION_UNSPECIFIED",
    "autoPreviewEnabled": false,
    "isDeviceAgent": false
  },
  "defaultTimezone": "Europe/Kaliningrad",
  "webhook": {
    "url": "",
    "username": "",
    "headers": {},
    "available": false,
    "useForDomains": false,
    "cloudFunctionsEnabled": false,
    "cloudFunctionsInitialized": false
  },
  "isPrivate": true,
  "mlMinConfidence": 0.3,
  "supportedLanguages": [],
  "enableOnePlatformApi": true,
  "onePlatformApiVersion": "v2",
  "secondaryKey": "cc54614df0bc4733b076613cda6a446c",
  "analyzeQueryTextSentiment": false,
  "enabledKnowledgeBaseNames": [],
  "knowledgeServiceConfidenceAdjustment": -0.4,
  "dialogBuilderMode": false,
  "baseActionPackagesUrl": "",
  "enableSpellCorrection": false
}